…
The following generates 100 training/ testing pairs and stores them as
list columns in a data frame.

``` r
cv_df = 
  crossv_mc(nonlin_df, 100) 
```

You can see the list columns by doing:

``` r
cv_df %>% pull(train) %>% .[[3]] %>% as_tibble
```

    ## # A tibble: 79 x 3
    ##       id     x      y
    ##    <int> <dbl>  <dbl>
    ##  1     1 0.266  1.11 
    ##  2     2 0.372  0.764
    ##  3     3 0.573  0.358
    ##  4     4 0.908 -3.04 
    ##  5     5 0.202  1.33 
    ##  6     6 0.898 -1.99 
    ##  7     7 0.945 -3.27 
    ##  8    11 0.206  1.63 
    ##  9    12 0.177  0.836
    ## 10    13 0.687 -0.291
    ## # … with 69 more rows
…
Try fitting a linear model to all of these and calculating the rmse for
each set.

``` r
cv_df %>% 
  mutate(
    linear_mods = map(.x = train, ~lm(y ~ x, data = .x)), 
    rmse_lin = map2_dbl(.x = linear_mods, .y = test, ~rmse(.x, .y))
  )
```

    ## # A tibble: 100 x 5
    ##    train             test              .id   linear_mods rmse_lin
    ##    <list>            <list>            <chr> <list>         <dbl>
    ##  1 <tibble [79 × 3]> <tibble [21 × 3]> 001   <lm>           0.675
    ##  2 <tibble [79 × 3]> <tibble [21 × 3]> 002   <lm>           0.655
    ##  3 <tibble [79 × 3]> <tibble [21 × 3]> 003   <lm>           0.785
    ##  4 <tibble [79 × 3]> <tibble [21 × 3]> 004   <lm>           0.874
    ##  5 <tibble [79 × 3]> <tibble [21 × 3]> 005   <lm>           0.784
    ##  6 <tibble [79 × 3]> <tibble [21 × 3]> 006   <lm>           0.844
    ##  7 <tibble [79 × 3]> <tibble [21 × 3]> 007   <lm>           0.791
    ##  8 <tibble [79 × 3]> <tibble [21 × 3]> 008   <lm>           0.758
    ##  9 <tibble [79 × 3]> <tibble [21 × 3]> 009   <lm>           0.621
    ## 10 <tibble [79 × 3]> <tibble [21 × 3]> 010   <lm>           0.839
    ## # … with 90 more rows
…
